Chapter 6 Combining data sets | BB852 - Data handling, visualisation and statistics
…
I would like to make a boxplot, but it is not possible to easily do it with the data arranged in this format. What I need to do is “unpack” or rearrange the data to add another column for sex. This will make the data frame twice as long, and less wide.

There is a convenient function called pivot_longer in the tidyr package that will do this for you.
You can “pipe” data into the funtion, then tell it which columns you would like to move, and then give it the name of the new column that contains data that was in the column heading, and the name of the column containing the data.

newHeights <- heights %>% 
  pivot_longer(cols = c(heightMale,heightFemale),names_to = c("Sex"),values_to = "Height")

newHeights

## # A tibble: 60 x 3
##    place  Sex          Height
##    <chr>  <chr>         <int>
##  1 London heightMale      170
##  2 London heightFemale    164
##  3 London heightMale      176
##  4 London heightFemale    158
##  5 London heightMale      179
##  6 London heightFemale    157
##  7 London heightMale      166
##  8 London heightFemale    158
##  9 London heightMale      177
## 10 London heightFemale    153
## # … with 50 more rows

We are nearly done. But this is not perfect because the names in the Sex column are not right. We can fix this in a couple ways. Here’s one easy way using the function gsub. The gsub function (“general substution) finds text and replaces it with other text. In this case we want to find”height" and replace it with nothing ("").

So we can now complete the job with a mutate command, and make sure it is recognised as a categorical variable (a factor, like this:

newHeights <- heights %>% 
  pivot_longer(cols = c(heightMale,heightFemale),names_to = c("Sex"),values_to = "Height") %>% 
  mutate(Sex = gsub(pattern = "height",replacement = "",x = Sex)) %>% 
  mutate(Sex = as.factor(Sex))

newHeights

## # A tibble: 60 x 3
##    place  Sex    Height
##    <chr>  <fct>   <int>
##  1 London Male      170
##  2 London Female    164
##  3 London Male      176
##  4 London Female    158
##  5 London Male      179
##  6 London Female    157
##  7 London Male      166
##  8 London Female    158
##  9 London Male      177
## 10 London Female    153
## # … with 50 more rows
…
