Chapter 7 Exercise: Temperature effects on egg laying dates | BB852 - Data handling, visualisation and statistics
…
Use pivot_longer to reformat the data. This might take a bit of trial and error - don’t give up!

Maybe this will help: The first argument in the gather command indicates what the columns in the main data represent (i.e. here the column represents “Year”). The second argument is the name you would give to the actual data (i.e. “day”, in this case). The final argument then tells the function which columns of the data are not to be rearranged (i.e. “boxNumber” in this case).

You should end up with a dataset with three columns as described above.

eggDates %>% 
pivot_longer(cols = c(y2013,y2014,y2016,y2017,y2018,y2019),names_to = c("Year"),values_to = "Day")

## # A tibble: 600 x 3
##    boxNumber Year    Day
##        <int> <chr> <int>
##  1         1 y2013   116
##  2         1 y2014   103
##  3         1 y2016    NA
##  4         1 y2017   107
##  5         1 y2018   111
##  6         1 y2019    NA
##  7         2 y2013    NA
##  8         2 y2014    NA
##  9         2 y2016    NA
## 10         2 y2017   114
## # … with 590 more rows

There is, in fact, an easier way to do this with a “helper function”, starts_with.

eggDates %>% 
pivot_longer(cols = starts_with("y"),names_to = c("Year"),values_to = "Day")

## # A tibble: 600 x 3
##    boxNumber Year    Day
##        <int> <chr> <int>
##  1         1 y2013   116
##  2         1 y2014   103
##  3         1 y2016    NA
##  4         1 y2017   107
##  5         1 y2018   111
##  6         1 y2019    NA
##  7         2 y2013    NA
##  8         2 y2014    NA
##  9         2 y2016    NA
## 10         2 y2017   114
## # … with 590 more rows

Ensure that year is coded as numeric variable using mutate. [Hint, you can use the command as.numeric, but first remove the “y” in the name using gsub].

eggDates %>% 
  pivot_longer(cols = starts_with("y"),names_to = c("Year"),values_to = "Day") %>% 
  mutate(Year = gsub(pattern = "y",replacement = "", x = Year)) %>% 
  mutate(Year = as.numeric(Year))

## # A tibble: 600 x 3
##    boxNumber  Year   Day
##        <int> <dbl> <int>
##  1         1  2013   116
##  2         1  2014   103
##  3         1  2016    NA
##  4         1  2017   107
##  5         1  2018   111
##  6         1  2019    NA
##  7         2  2013    NA
##  8         2  2014    NA
##  9         2  2016    NA
## 10         2  2017   114
## # … with 590 more rows
…
